{
  "type": "service_account",
  "project_id": "goandback-b5cb2",
  "private_key_id": "614dd262e10f9b2a303e12537ba3610d243b32bf",
  "private_key": "-----BEGIN PRIVATE KEY-----\nMIIEvgIBADANBgkqhkiG9w0BAQEFAASCBKgwggSkAgEAAoIBAQDACTOLpQh5i948\nJYfbqpd6q54w+sUCVzQ5CdrX8seHMGA8C9dpsyHIeBEIbH668gvvPPuVo6aGawWd\nFz/uNAMB2zqkQJYBRg7ZKLoRm3JefYZr9/jO2I0Gy0LLzrNBFgykAtiIcjaCdsc5\naS21ZlT7LamfNbFdpvmT6aPRKin5dg8qVfCmtNxHDKKRcH3mCxeE+NQWtaHswfcH\nizeu1F8fLy2si6VZoZ9RaVA00DVYO9oTpMVM8MxLhM2q7KpY1AQfnhwIVFnDmULI\n+qWBbm1CMGGpGDPsUhudhj6AnwCaNdVR/20DUxZdSW0V0a8G9VAtXYUKHq2HVFqC\ni7bdBpa/AgMBAAECggEAFsNAc+YSX231NXCcGQKwmp7VzSfRyxmRHCMPPhe4uk1B\nVadwV5wfKLHAEHKOgb8H1nTbvCdo1CLCyJXP7dQGeJAxnvSfk0kS9ioTXDDug/Ah\nyzyFJpJEAoZ8xXHGjQl9uBc07tTdoeX4btVee1PE8P0UT8Xqie0CmnDQX+O9PqTL\nbbdOH5rD8PP9xQuzQotB3cRy2flzZSq6wpyqNo8PytKZJCkGt/Skc9t6V9MKx2p1\noVzRTIm2GaXALvg/6yd2j8Zgi0ClPwnfQbzeLKpoEV+0fB5vnTsBRs0zqLeH7575\n+gEx7yqI5H26ftunQmCEwRAyLzmV+PnJbaZyK51kUQKBgQDyfCuuTh3JI/vcsZ+z\n5mx1znRN9G2ji1Ezwiajykk2Ix+hyKauo0Ab/S1rpd1GLTbVPHJOQ4epXcv7pCVP\n5pecRvzaxRTxluk7txNJdbcsQ/dTEsTvJsmoschyJtfd2/pBD+hbATHLHgPf9REr\nrQhBfFsge9O4t7AMFYZuwHKWaQKBgQDKvTZFU25TQ6uoBDbv9C2vDDMQADJO/Qvs\nzeAmr5DkwETNQe3xOHvMDb87Jv+XPeqhyS1CJPXMHXpHWl6YYxNMjV1Ce7QBOYkv\nzaa6YyhLwR9CJ89k8i05xgPSar46PthjkwUtnLQGygszXPGRM7pyPPqYr8gtFus+\nX6rT+oou5wKBgBQe1YkLFlGgWL/BRV0qG4nS7beiNo7BeqVu0MH6gQSq+W71NU98\nYE9yPJiYFLpD+i7LazivRcx56fkhb68nlSD0ivqkK864FPZNhJ4t1Fsp8JXGEu09\nLLKAvf8q1fKk1Ckd5svWV4lhHjUxIpGbM/orFWymmbTUGRmHl7YM5fUxAoGBALM8\nEgW6G7grBE/24ebDdbviyiXkNpXUar2AySEKZ8uEG49nMQfoCrI8mQqfkKjSCWPc\nqlFmwZMhoGACicypEn/EHmXPXTUT+6+yXSs8zHwkkRD4hwbUf50q7WgSDHkL5Fwr\ntxE7D4FNEBfpnHrlQ3kJZfakuRD7yR+Mjkb3oUCTAoGBAOPlplWrouK9JG8DWkdK\n56A8/JaltziOpJdHeeYea1qxHqGWnqoJvXlrP42X8Cn/9rb0rJWUFMCSFXlK6BJQ\ntpa5mHCHWMpOxLs/zndW2BS0hAPIAi+MWM2clpbOH4GUVEah2bG3L6i68spq5fkY\n66ukCcZeDTYjyqS06yjQwLp9\n-----END PRIVATE KEY-----\n",
  "client_email": "firebase-adminsdk-71er4@goandback-b5cb2.iam.gserviceaccount.com",
  "client_id": "103748882582068564095",
  "auth_uri": "https://accounts.google.com/o/oauth2/auth",
  "token_uri": "https://oauth2.googleapis.com/token",
  "auth_provider_x509_cert_url": "https://www.googleapis.com/oauth2/v1/certs",
  "client_x509_cert_url": "https://www.googleapis.com/robot/v1/metadata/x509/firebase-adminsdk-71er4%40goandback-b5cb2.iam.gserviceaccount.com"
}
